<?xml version="1.0" encoding="utf-8"?>
<!-- Generator: Adobe Illustrator 16.0.0, SVG Export Plug-In . SVG Version: 6.00 Build 0)  -->
<!DOCTYPE svg PUBLIC "-//W3C//DTD SVG 1.1//EN" "http://www.w3.org/Graphics/SVG/1.1/DTD/svg11.dtd">
<svg version="1.1" id="图层_1" xmlns="http://www.w3.org/2000/svg" xmlns:xlink="http://www.w3.org/1999/xlink" x="0px" y="0px"
	 width="8.938px" height="140px" viewBox="0 0 8.938 140" enable-background="new 0 0 8.938 140" xml:space="preserve">
<path display="none" fill="#56C4C3" d="M0,9.7v0.546L8.938,140l0,0V0.055C4.005,0.569,0.149,4.668,0,9.7z"/>
<path fill="#56C4C3" d="M8.938,9.7v0.546L0,140l0,0V0.055C4.932,0.569,8.788,4.668,8.938,9.7z"/>
</svg>
